Name,Keyword
Pandemic,"Covid 19,Omicron,Delta,Mask,Virus,PCR,Vaccine,Quarantine,Social Distancing,Kit Test,Covid-19,Covid19"
C-Level,"CEO,CIO,CTO,CFO,COO,CMO,CISO,CRO,CPO,CHRO"
Gen Z,"KOC,Micro Influencer,Open minded,Tiktoker,Affiliate Marketing,Digital Buyer,Generation Gap,Content Creator,DIY,Short Information Video,Do It Yourself"
Tiktok Booms,"Tiktoker,Gen Z,Duet,Learn on Tiktok,Content,Tiktok Shop,Challenges,Review,Short Videos,Viral"
Sharing,"Wifi,P2P,Cloud,Open Innovation,Open Source Code,Airdrop,Bike,NFC,Co working,Co living,Peer to Peer,Car Sharing"
Seagame,"Vietnam,31,Saola,Victory,Let's Shine,Sport,For a Stronger Southeast Asia,Medal Ranking"
AI,"Machine Learning,Deep Learning,Self Driving,Autopilot,Natural Language,Virtual Assistants,Big Data,Chatbot,Social Network Analysis,Robot,Robotic"
Blockchain,"Metaverse,Bitcoin,eKYC,Decentraland,NFT,Meta,DeFi,Ethereum,Crypto,Nocode Tech,Decentralized Finance,ETH,Crypto Currency,Facebook,BTC"
Digital Transformation,"E commerce,Digital wallets,Digital Payment,Delivery services,Live commerce,Online,Livestream,Online Inventory,Online Purchase,Digital Strategies,E wallets,Internet Banking,Streaming,Shopping"
Renewable Energy,"Solar,Waves,Wind,Electricity,Lithium Batteries,Hydrogen,CCS,Nuclear,Geoenergy,Geothermal,Carbon capture and storage technologies"
17 SDGs,"No Poverty,Zero Hunger,Good Health,Wellbeing,Quality Education,Gender Equality,Clean Water,Sanitation,Affordable,Clean Energy,Decent Work,Economic Growth,Industry,Innovation,Infrastructure,Reduced Inequalities,Sustainable Cities & Communities,,Climate Action,Life Below Water,Life On Land,Peace, Justice and Strong Institutions,,Parnerships for the Goals,,Responsible Consumption & Production"
Hybrid,"Semi remote,Online Offline,Electric Fuel,Onsite Offshore,Agile Traditional,Debit Credit,Digital Traditional,Mixed,WFO,Zonkey,WFH"
Cyber Security,"Antivirus,Hacker,Privacy,Scam,Information Leak,Virus,Computer Worm,Trojan,Malware,Firewall"
New Normal,"Low Touch Economy,Digital Transformation,Integrated Automotion,Digitalized,Remote Working,Vaccine Passport,Virtual Healthcare,Herd Immunity,Food,Cybersecurity,Groceries Delivery,Collaboration,Education"
Connection,"Platform,5G,Internet of Things,Link,Story,Community,Networking,Interaction,Wireless,Emoji,IoT"
Climate Change,"Greenhouse Gas,Emissions,Global Warming,fossil fuels,Natural Disasters,Pollution,Melting Ice,Ozone,Biodiversity,El Nino,Ozone Depletion"
Deep Tech,"Python,Data Science,Blockchain,Advanced Materials,Robotics & Drones,AI,Photonics & Electronics,Quantum Computing,Biotechnology,Nanotechnology,Artificial Intelligence"
Work-life Balance,"Stress,Telework,Healthcare,Time Management,Lifestyle,Wellbeing,Psychology,Tech free,Work Environment,Depression,Mobile Work,Anxiety"
Agile,"Srum,Sprint,Kanban,Sprint Backlog,Risks,Lean,XP,PO,User Story,BA,Extreme Programming,Product Owner,Business Analyst"
Smart City,"Smart Home,Smart Buildings,Smart Health,Smart Environment,Smart Street Lights,Smart Public Safety,Smart Waste Management,IoT,Connectivity,Open Data,Smart Goverment,Smart Manufacturing,Mobility,Smart Citizens,Smart Transportation,Smart Security,Smart Grid,Intelligenct Shopping,Gas Leak Detection,Living Lab,Wifi,Digital Citizens,Energy,Utilities,Water Leak Detection"
Warfare,"SWIFT,Ukraine,Russia,Putin,Nato,Gas,Sanction,Military Warfare,Economic Warfare,United Nations,Vladimir Putin"
Automotive Industry,"AV,Connectivity,Electrification,Shared Mobility,AI,Human Machine Interface,Big Data & Data Analytics,Blockchain,3D Printing,IOT,Internets of Things,Artificial Intelligence,Autonomous Vehicles"
Traffic Jam,"Motobike,Rush Hour,Public Transportation,Metro,Ho Chi Minh City,Hanoi,Smog,Private Vehicle,Noise Pollution,GPS,HCMC,Smoke"
Authenticity,"SMS code,Email Code,Password,OTP,CAPTCHA,OATH,Fingerprint,Face ID,Voice Call,FIDO2 security key,Token,Verification"
Interactive Ads,"Live Streaming,Gaming,Viral Video,Podcast,Social Networks,DOOH,Conversational Commerce,Immersive Technologies,Omichannel,Story Telling,Media"
New Mobility,"Drone,Delivery Robot,Self Driving Car,AV,Smartphone,Electric Vehicle,Real Time,GPS,Hyperloop,Shared use Mobility,Autonomous Vehicles"
Play to Earn,"GameFi,Sky Mavis,Axie Infinity,E Sport,Story,Collectibility,Usability,Positive Sum Game,Blockchain"
Music Marketing,"Top Trending,Artist,KOL,Viral Music,Screenless Moment,Di de tro ve,Biti's,Điện Máy Xanh,TIKI,YouTube,Bitis,Đi để trở về,Dien may xanh,Celeb"
Web3,"Edge Computing,Decentralized Data,AI driven,Own,DAO,Semantic Web,Tokenized Network,DOT,Gamification,Polkadot"
FOMO,"Fear of Missing Out,Forex,Trader,Psychology,Peer Pressure,Crypto Trading,Social Media Addiction,Zero Sum Game,Coin"